{
    "epochs": 150,

    "batch_size": 1,

    "image_size": 512,
    "use_random_flip": true,

    "num_h5_parallel_calls": 4,
    "num_parallel_calls": 4,
    "save_summary_steps": 1,

    "train_dir": "data/train",
    "test_dir": "data/test",

    "random_seed": 32087
}
